Individual1
…
bioClean <- biography
bioClean$Name <- as.factor(bioClean$Name)
bioClean <- bioClean %>% separate(Height, c('feet','inches')) %>% mutate_at(c(3:4), as.numeric)
bioClean$Height <- (bioClean$feet * 12) + bioClean$inches
bioClean <- bioClean[, -c(3:4)]
bioClean

## # A tibble: 105 x 7
##    Name         Position     Weight Class       Hometown       Highschool Height
##    <fct>        <chr>        <chr>  <chr>       <chr>          <chr>       <dbl>
##  1 Akers, Land Wide Receiv 188    Redshirt S Cedar Rapids, Washington     72
##  2 Allen, Chase Tight End    245    Redshirt S Nixa, Mo.      Nixa           79
##  3 Anderson, E Wide Receiv 204    Redshirt F Seffner, Fla.  Armwood        77
##  4 Assalley, C Placekicker  195    Redshirt S Naperville, I Central        72
##  5 Azunna, Arn Defensive B 190    Redshirt S Grand Prairie Lake Ridge     72
##  6 Bailey, Cor Defensive E 235    Redshirt J Clarksdale, M Clarksdale     75
##  7 Bailey, JaQ Defensive E 255    Redshirt S Jacksonville, Raines         74
##  8 Bailey, Jos Defensive L 285    Redshirt S Jacksonville, Raines         74
##  9 Bankston, L Defensive L 300    Junior      Woodstock, Ga. Woodstock      72
## 10 Bouman, Aid Quarterback  215    Freshman    Buffalo, Minn. Buffalo        78
## #  with 95 more rows
…
## tibble [105  7] (S3: tbl_df/tbl/data.frame)
##  $ Name      : Factor w/ 105 levels "Akers, Landen",..: 1 2 3 4 5 6 7 8 9 10 ...
##  $ Position  : chr [1:105] "Wide Receiver" "Tight End" "Wide Receiver" "Placekicker" ...
##  $ Weight    : chr [1:105] "188" "245" "204" "195" ...
##  $ Class     : chr [1:105] "Redshirt Senior" "Redshirt Senior" "Redshirt Freshman" "Redshirt Senior" ...
##  $ Hometown  : chr [1:105] "Cedar Rapids, Iowa" "Nixa, Mo." "Seffner, Fla." "Naperville, Ill." ...
##  $ Highschool: chr [1:105] "Washington" "Nixa" "Armwood" "Central" ...
##  $ Height    : num [1:105] 72 79 77 72 72 75 74 74 72 78 ...

Part 2: Tidying

defClean <- defClean %>% pivot_longer(Tackles_Solo:Pass_PB, names_to  = "stat")
defClean

## # A tibble: 4,518 x 4
##    Name            Opponent stat         value
##    <fct>           <fct>    <chr>        <dbl>
##  1 White, Lawrence UNI      Tackles_Solo     4
##  2 White, Lawrence UNI      Tackles_ASST     4
##  3 White, Lawrence UNI      Tackles_TFL      0
##  4 White, Lawrence UNI      Tackles_Sack     0
##  5 White, Lawrence UNI      Turnover_FF      0
##  6 White, Lawrence UNI      Turnover_FR      0
##  7 White, Lawrence UNI      Turnover_INT     0
##  8 White, Lawrence UNI      Pass_QBH         1
##  9 White, Lawrence UNI      Pass_PB          1
## 10 White, Lawrence Iowa     Tackles_Solo     4
## #  with 4,508 more rows
…
defenseScore2019 <- defClean %>% replace(is.na(.),0) %>% mutate(defensivePerformance = Tackles_Solo + Tackles_ASST + Tackles_TFL + Tackles_Sack + Turnover_FF + Turnover_FR + Turnover_INT + Pass_QBH + Pass_PB) %>% select(Name, defensivePerformance) %>% group_by(Name) %>% summarise(defensivePerformance = sum(defensivePerformance))

## `summarise()` ungrouping output (override with `.groups` argument)

scores19 <- full_join(offScore, defenseScore2019, by = "Name")
scores19 <- scores19 %>% replace(is.na(.),0) %>% mutate(score19 = offensivePerformance + defensivePerformance)

scores19 <- scores19 %>% select(Name, score19)
scores18 <- scores18 %>% select(Name, score18)
scores <- full_join(scores18, scores19, by = "Name")

scores

## # A tibble: 69 x 3
##    Name             score18 score19
##    <fct>              <dbl>   <dbl>
##  1 Akers, Landen        192     138
##  2 Allen, Chase          92     188
##  3 Butler, Hakeem      1388      NA
##  4 Eaton, Matthew       333      NA
##  5 Johnson, Josh         12      NA
##  6 Jones, Deshaunte     414    1014
##  7 Kempt, Kyle          161      NA
##  8 Kolar, Charlie       152     757
##  9 Lang, Johnnie        137     354
## 10 Milton, Tarique      457     760
## #  with 59 more rows
…
